…
```r
library(lattice, quiet=TRUE)
library(knitr, quiet=TRUE)
```

```r
download.file("https://d396qusza40orc.cloudfront.net/repdata/data/activity.zip",
              "activity.csv.zip")
mydata<- tbl_df(read.csv(unzip("activity.csv.zip")))
mydata
```

```
## # A tibble: 17,568 × 3
##    steps       date interval
##    <int>     <fctr>    <int>
## 1     NA 2012-10-01        0
## 2     NA 2012-10-01        5
## 3     NA 2012-10-01       10
## 4     NA 2012-10-01       15
## 5     NA 2012-10-01       20
## 6     NA 2012-10-01       25
## 7     NA 2012-10-01       30
## 8     NA 2012-10-01       35
## 9     NA 2012-10-01       40
## 10    NA 2012-10-01       45
## # ... with 17,558 more rows
```
…
###Average daily activity pattern

3. Time series plot of the number of steps taken per interval averaged over all days.


```r
daily<-group_by(daily,interval)
daily<- summarize(daily,mean(steps,na.rm = TRUE))
colnames(daily)<- c('interval','steps')
daily
```

```
## # A tibble: 288 × 2
##    interval     steps
##       <int>     <dbl>
## 1         0 1.7169811
## 2         5 0.3396226
## 3        10 0.1320755
## 4        15 0.1509434
## 5        20 0.0754717
## 6        25 2.0943396
## 7        30 0.5283019
## 8        35 0.8679245
## 9        40 0.0000000
## 10       45 1.4716981
## # ... with 278 more rows
```
…
